{
    "images": [
        {
            "id": 48823330,
            "name": "Dokku 0.17.9 on 18.04",
            "distribution": "Ubuntu",
            "slug": "dokku-18-04",
            "public": true,
            "regions": [
                "nyc1",
                "sfo1",
                "nyc2",
                "ams2",
                "sgp1",
                "lon1",
                "nyc3",
                "ams3",
                "fra1",
                "tor1",
                "sfo2",
                "blr1",
                "sfo3"
            ],
            "created_at": "2019-06-25T15:32:42Z",
            "min_disk_size": 20,
            "type": "snapshot",
            "size_gigabytes": 0.84,
            "description": "Dokku 0.17.9 on 18.04 20190625",
            "tags": [],
            "status": "available",
            "error_message": ""
        },
        {
            "id": 48825518,
            "name": "MySQL on 18.04",
            "distribution": "Ubuntu",
            "slug": "mysql-18-04",
            "public": true,
            "regions": [
                "nyc1",
                "sfo1",
                "nyc2",
                "ams2",
                "sgp1",
                "lon1",
                "nyc3",
                "ams3",
                "fra1",
                "tor1",
                "sfo2",
                "blr1",
                "sfo3"
            ],
            "created_at": "2019-06-25T18:47:45Z",
            "min_disk_size": 20,
            "type": "snapshot",
            "size_gigabytes": 0.51,
            "description": "MySQL on 18.04 20190625",
            "tags": [],
            "status": "available",
            "error_message": ""
        },
        {
            "id": 48826557,
            "name": "PhpMyAdmin on 18.04",
            "distribution": "Ubuntu",
            "slug": "phpmyadmin-18-04",
            "public": true,
            "regions": [
                "nyc1",
                "sfo1",
                "nyc2",
                "ams2",
                "sgp1",
                "lon1",
                "nyc3",
                "ams3",
                "fra1",
                "tor1",
                "sfo2",
                "blr1",
                "sfo3"
            ],
            "created_at": "2019-06-25T19:35:39Z",
            "min_disk_size": 20,
            "type": "snapshot",
            "size_gigabytes": 0.51,
            "description": "PhpMyAdmin on 18.04 20190625",
            "tags": [],
            "status": "available",
            "error_message": ""
        },
        {
            "id": 51114830,
            "name": "LEMP on 18.04",
            "distribution": "Ubuntu",
            "slug": "lemp-18-04",
            "public": true,
            "regions": [
                "nyc1",
                "sfo1",
                "nyc2",
                "ams2",
                "sgp1",
                "lon1",
                "nyc3",
                "ams3",
                "fra1",
                "tor1",
                "sfo2",
                "blr1",
                "sfo3"
            ],
            "created_at": "2019-08-19T16:59:05Z",
            "min_disk_size": 20,
            "type": "snapshot",
            "size_gigabytes": 0.47,
            "description": "LEMP on 18.04 20190819",
            "tags": [],
            "status": "available",
            "error_message": ""
        },
        {
            "id": 60412145,
            "name": "Ruby on Rails on 18.04",
            "distribution": "Ubuntu",
            "slug": "rails-18-04",
            "public": true,
            "regions": [
                "nyc1",
                "sfo1",
                "nyc2",
                "ams2",
                "sgp1",
                "lon1",
                "nyc3",
                "ams3",
                "fra1",
                "tor1",
                "sfo2",
                "blr1",
                "sfo3"
            ],
            "created_at": "2020-03-10T14:58:51Z",
            "min_disk_size": 20,
            "type": "snapshot",
            "size_gigabytes": 21.47,
            "description": "Ruby on Rails on 18.04 ",
            "tags": [],
            "status": "available",
            "error_message": ""
        },
        {
            "id": 45800611,
            "name": "DeadLetter Facial Recognition on 18.04",
            "distribution": "Ubuntu",
            "slug": "deadletter-18-04",
            "public": true,
            "regions": [
                "nyc1",
                "sfo1",
                "nyc2",
                "ams2",
                "sgp1",
                "lon1",
                "nyc3",
                "ams3",
                "fra1",
                "tor1",
                "sfo2",
                "blr1",
                "sfo3"
            ],
            "created_at": "2019-04-11T02:03:55Z",
            "min_disk_size": 25,
            "type": "snapshot",
            "size_gigabytes": 1.45,
            "description": "",
            "tags": [],
            "status": "available",
            "error_message": ""
        },
        {
            "id": 47155558,
            "name": "HoneyDB Agent on Debian 9",
            "distribution": "Debian",
            "slug": "honeydbagent-9",
            "public": true,
            "regions": [
                "nyc1",
                "sfo1",
                "nyc2",
                "ams2",
                "sgp1",
                "lon1",
                "nyc3",
                "ams3",
                "fra1",
                "tor1",
                "sfo2",
                "blr1",
                "sfo3"
            ],
            "created_at": "2019-05-15T00:06:30Z",
            "min_disk_size": 25,
            "type": "snapshot",
            "size_gigabytes": 1.09,
            "description": "HoneyDB Agent on Debian 9",
            "tags": [],
            "status": "available",
            "error_message": ""
        },
        {
            "id": 47172991,
            "name": "Spotipo 3.4.13 on 18.04",
            "distribution": "Ubuntu",
            "slug": "nibblecomm-spotipo-18-04",
            "public": true,
            "regions": [
                "nyc1",
                "sfo1",
                "nyc2",
                "ams2",
                "sgp1",
                "lon1",
                "nyc3",
                "ams3",
                "fra1",
                "tor1",
                "sfo2",
                "blr1",
                "sfo3"
            ],
            "created_at": "2019-05-15T05:38:56Z",
            "min_disk_size": 25,
            "type": "snapshot",
            "size_gigabytes": 2.52,
            "description": "Spotipo 3.4.13 on 18.04",
            "tags": [],
            "status": "available",
            "error_message": ""
        },
        {
            "id": 47187262,
            "name": "Helpy 2.4 on 18.04",
            "distribution": "Ubuntu",
            "slug": "helpy-18-04",
            "public": true,
            "regions": [
                "nyc1",
                "sfo1",
                "nyc2",
                "ams2",
                "sgp1",
                "lon1",
                "nyc3",
                "ams3",
                "fra1",
                "tor1",
                "sfo2",
                "blr1",
                "sfo3"
            ],
            "created_at": "2019-05-15T20:05:43Z",
            "min_disk_size": 25,
            "type": "snapshot",
            "size_gigabytes": 3.44,
            "description": "Helpy 2.4 on 18.04",
            "tags": [],
            "status": "available",
            "error_message": ""
        },
        {
            "id": 47190076,
            "name": "OpenFaaS on Ubuntu 18.04",
            "distribution": "Ubuntu",
            "slug": "openfaas-18-04",
            "public": true,
            "regions": [
                "nyc1",
                "sfo1",
                "nyc2",
                "ams2",
                "sgp1",
                "lon1",
                "nyc3",
                "ams3",
                "fra1",
                "tor1",
                "sfo2",
                "blr1",
                "sfo3"
            ],
            "created_at": "2019-05-15T21:09:18Z",
            "min_disk_size": 25,
            "type": "snapshot",
            "size_gigabytes": 2.21,
            "description": "OpenFaaS on Ubuntu 18.04",
            "tags": [],
            "status": "available",
            "error_message": ""
        },
        {
            "id": 47190557,
            "name": "Onion Routed Cloud 14 on 18.04",
            "distribution": "Ubuntu",
            "slug": "deadcanaries-onionroutedcloud-18-04",
            "public": true,
            "regions": [
                "nyc1",
                "sfo1",
                "nyc2",
                "ams2",
                "sgp1",
                "lon1",
                "nyc3",
                "ams3",
                "fra1",
                "tor1",
                "sfo2",
                "blr1",
                "sfo3"
            ],
            "created_at": "2019-05-15T21:19:41Z",
            "min_disk_size": 25,
            "type": "snapshot",
            "size_gigabytes": 1.46,
            "description": "Onion Routed Cloud 14 on 18.04",
            "tags": [],
            "status": "available",
            "error_message": ""
        },
        {
            "id": 47193962,
            "name": "FastNetMon 2.0 on Ubuntu 18.04",
            "distribution": "Ubuntu",
            "slug": "fastnetmon-18-04",
            "public": true,
            "regions": [
                "nyc1",
                "sfo1",
                "nyc2",
                "ams2",
                "sgp1",
                "lon1",
                "nyc3",
                "ams3",
                "fra1",
                "tor1",
                "sfo2",
                "blr1",
                "sfo3"
            ],
            "created_at": "2019-05-15T22:31:26Z",
            "min_disk_size": 25,
            "type": "snapshot",
            "size_gigabytes": 3.71,
            "description": "FastNetMon 2.0 on Ubuntu 18.04",
            "tags": [],
            "status": "available",
            "error_message": ""
        },
        {
            "id": 47219194,
            "name": "Prometheus 2.9.2 on Ubuntu 18.04",
            "distribution": "Ubuntu",
            "slug": "prometheus-18-04",
            "public": true,
            "regions": [
                "nyc1",
                "sfo1",
                "nyc2",
                "ams2",
                "sgp1",
                "lon1",
                "nyc3",
                "ams3",
                "fra1",
                "tor1",
                "sfo2",
                "blr1",
                "sfo3"
            ],
            "created_at": "2019-05-16T09:35:42Z",
            "min_disk_size": 20,
            "type": "snapshot",
            "size_gigabytes": 1.33,
            "description": "Prometheus 2.9.2 on Ubuntu 18.04",
            "tags": [],
            "status": "available",
            "error_message": ""
        },
        {
            "id": 47220441,
            "name": "Acra 0.85.0 on Ubuntu 18.04",
            "distribution": "Ubuntu",
            "slug": "acra-18-04",
            "public": true,
            "regions": [
                "nyc1",
                "sfo1",
                "nyc2",
                "ams2",
                "sgp1",
                "lon1",
                "nyc3",
                "ams3",
                "fra1",
                "tor1",
                "sfo2",
                "blr1",
                "sfo3"
            ],
            "created_at": "2019-05-16T12:44:10Z",
            "min_disk_size": 25,
            "type": "snapshot",
            "size_gigabytes": 1.49,
            "description": "Acra 0.85.0 on Ubuntu 18.04",
            "tags": [],
            "status": "available",
            "error_message": ""
        },
        {
            "id": 47457247,
            "name": "Onjection Jenkins 2.164.3 on Ubuntu 16.04",
            "distribution": "Ubuntu",
            "slug": "onjection-jenkins-16-04",
            "public": true,
            "regions": [
                "nyc1",
                "sfo1",
                "nyc2",
                "ams2",
                "sgp1",
                "lon1",
                "nyc3",
                "ams3",
                "fra1",
                "tor1",
                "sfo2",
                "blr1",
                "sfo3"
            ],
            "created_at": "2019-05-22T07:05:51Z",
            "min_disk_size": 25,
            "type": "snapshot",
            "size_gigabytes": 3.12,
            "description": "Onjection Jenkins 2.164.3 on Ubuntu 16.04",
            "tags": [],
            "status": "available",
            "error_message": ""
        },
        {
            "id": 47696842,
            "name": "Shopware on Ubuntu 18.04",
            "distribution": "Ubuntu",
            "slug": "shopware-18-04",
            "public": true,
            "regions": [
                "nyc1",
                "sfo1",
                "nyc2",
                "ams2",
                "sgp1",
                "lon1",
                "nyc3",
                "ams3",
                "fra1",
                "tor1",
                "sfo2",
                "blr1",
                "sfo3"
            ],
            "created_at": "2019-05-28T12:46:55Z",
            "min_disk_size": 25,
            "type": "snapshot",
            "size_gigabytes": 2.22,
            "description": "Shopware on Ubuntu 18.04",
            "tags": [],
            "status": "available",
            "error_message": ""
        },
        {
            "id": 47979870,
            "name": "SolidInvoice 2.0.3 on Ubuntu 18.04",
            "distribution": "Ubuntu",
            "slug": "solidinvoice-18-04",
            "public": true,
            "regions": [
                "nyc1",
                "sfo1",
                "nyc2",
                "ams2",
                "sgp1",
                "lon1",
                "nyc3",
                "ams3",
                "fra1",
                "tor1",
                "sfo2",
                "blr1",
                "sfo3"
            ],
            "created_at": "2019-06-04T07:04:57Z",
            "min_disk_size": 25,
            "type": "snapshot",
            "size_gigabytes": 2.25,
            "description": "SolidInvoice 2.0.3 on Ubuntu 18.04",
            "tags": [],
            "status": "available",
            "error_message": ""
        },
        {
            "id": 48487343,
            "name": "OpenCart 3.0.3 on Ubuntu 18.04",
            "distribution": "Ubuntu",
            "slug": "opencart-18-04",
            "public": true,
            "regions": [
                "nyc1",
                "sfo1",
                "nyc2",
                "ams2",
                "sgp1",
                "lon1",
                "nyc3",
                "ams3",
                "fra1",
                "tor1",
                "sfo2",
                "blr1",
                "sfo3"
            ],
            "created_at": "2019-06-17T04:02:39Z",
            "min_disk_size": 25,
            "type": "snapshot",
            "size_gigabytes": 1.87,
            "description": "OpenCart 3.0.3 on Ubuntu 18.04",
            "tags": [],
            "status": "available",
            "error_message": ""
        },
        {
            "id": 48660871,
            "name": "Plesk 17.8 on CentOS 7",
            "distribution": "CentOS",
            "slug": null,
            "public": true,
            "regions": [
                "nyc1",
                "sfo1",
                "nyc2",
                "ams2",
                "sgp1",
                "lon1",
                "nyc3",
                "ams3",
                "fra1",
                "tor1",
                "sfo2",
                "blr1",
                "sfo3"
            ],
            "created_at": "2019-06-21T17:09:31Z",
            "min_disk_size": 20,
            "type": "snapshot",
            "size_gigabytes": 4.51,
            "description": "Plesk 17.8 on CentOS 7",
            "tags": [],
            "status": "available",
            "error_message": ""
        },
        {
            "id": 48862530,
            "name": "CloudBees Jenkins on 18.04",
            "distribution": "Ubuntu",
            "slug": "jenkins-18-04",
            "public": true,
            "regions": [
                "nyc1",
                "sfo1",
                "nyc2",
                "ams2",
                "sgp1",
                "lon1",
                "nyc3",
                "ams3",
                "fra1",
                "tor1",
                "sfo2",
                "blr1",
                "sfo3"
            ],
            "created_at": "2019-06-26T13:29:51Z",
            "min_disk_size": 25,
            "type": "snapshot",
            "size_gigabytes": 1.5,
            "description": "",
            "tags": [],
            "status": "available",
            "error_message": ""
        }
    ],
    "links": {
        "pages": {
            "last": "https://api.digitalocean.com/v2/images?page=13",
            "next": "https://api.digitalocean.com/v2/images?page=2"
        }
    },
    "meta": {
        "total": 248
    }
}